<svg width="41" height="41" viewBox="0 0 41 41" fill="none" xmlns="http://www.w3.org/2000/svg">
<circle cx="20.0537" cy="20.0537" r="20.0537" fill="#1BB275"/>
<circle cx="20.0537" cy="20.0537" r="20.0537" stroke="white"/>
<path d="M21.7184 29.0089V20.563H24.4648L24.873 17.2561H21.7184V15.1498C21.7184 14.1955 21.9747 13.5422 23.2947 13.5422H24.9674V10.5939C24.1535 10.5035 23.3355 10.4598 22.517 10.4631C20.0895 10.4631 18.4228 12.0006 18.4228 14.8231V17.2499H15.6943V20.5568H18.4288V29.0089H21.7184Z" fill="white"/>
</svg>
